ripplecarryadder/simulation/qsim/ripplecarry.msim.vcd
$comment
	File created using the following command:
		vcd file ripplecarry.msim.vcd -direction
$end
$date
	Wed Mar 20 16:38:50 2019
$end
$version
	ModelSim Version 10.1d
$end
$timescale
	1ps
$end
$scope module ripplecarry_vlg_vec_tst $end
$var reg 1 ! cin $end
$var reg 4 " x [3:0] $end
$var reg 4 # y [3:0] $end
$var wire 1 $ cout $end
$var wire 1 % s [3] $end
$var wire 1 & s [2] $end
$var wire 1 ' s [1] $end
$var wire 1 ( s [0] $end
$var wire 1 ) sampler $end
$scope module i1 $end
$var wire 1 * gnd $end
$var wire 1 + vcc $end
$var wire 1 , unknown $end
$var tri1 1 - devclrn $end
$var tri1 1 . devpor $end
$var tri1 1 / devoe $end
$var wire 1 0 s[0]~output_o $end
$var wire 1 1 s[1]~output_o $end
$var wire 1 2 s[2]~output_o $end
$var wire 1 3 s[3]~output_o $end
$var wire 1 4 cout~output_o $end
$var wire 1 5 cin~input_o $end
$var wire 1 6 y[0]~input_o $end
$var wire 1 7 x[0]~input_o $end
$var wire 1 8 stage0|Add1~0_combout $end
$var wire 1 9 x[1]~input_o $end
$var wire 1 : stage0|Add1~1_combout $end
$var wire 1 ; y[1]~input_o $end
$var wire 1 < stage1|Add1~0_combout $end
$var wire 1 = y[2]~input_o $end
$var wire 1 > x[2]~input_o $end
$var wire 1 ? stage2|Add0~0_combout $end
$var wire 1 @ stage2|Add1~0_combout $end
$var wire 1 A y[3]~input_o $end
$var wire 1 B x[3]~input_o $end
$var wire 1 C stage2|Add1~1_combout $end
$var wire 1 D stage2|Add1~2_combout $end
$var wire 1 E stage3|Add1~0_combout $end
$var wire 1 F stage3|Add1~1_combout $end
$upscope $end
$upscope $end
$enddefinitions $end
#0
$dumpvars
0!
b0 "
b10 #
0$
0(
1'
0&
0%
x)
0*
1+
x,
1-
1.
1/
00
11
02
03
04
05
06
07
08
09
0:
1;
1<
0=
0>
0?
0@
0A
0B
0C
0D
0E
0F
$end
#50000
b1000 "
b1100 "
b1110 "
b1111 "
17
19
1>
1B
0)
1?
18
1@
0<
1E
1C
10
12
01
13
1(
1&
0'
1%
0@
1D
02
0&
1F
0E
14
03
1$
0%
#80000
b1010 #
1A
1)
1E
13
1%
#130000
b111 "
b11 "
b1 "
b0 "
07
09
0>
0B
0)
0C
0?
08
1@
1<
0E
0D
00
12
11
03
0(
1&
1'
0%
0@
02
0&
0F
1E
04
13
0$
1%
#160000
1!
b10 #
15
0A
1)
18
0E
10
03
1(
0%
#220000
0!
05
0)
08
00
0(
#240000
b0 #
b1000 #
0;
1A
1)
0<
1E
01
13
0'
1%
#290000
b1000 "
b1100 "
b1110 "
b1111 "
17
19
1>
1B
0)
1?
18
1<
1F
0E
10
11
14
03
1(
1'
1$
0%
1@
12
1&
#320000
b1100 #
b1101 #
16
1=
1)
1:
1D
0?
08
00
0(
0<
1E
01
13
0'
1%
#350000
b1011 "
b1001 "
09
0>
0)
0D
1?
0@
1<
02
11
0&
1'
0E
1@
03
12
0%
1&
#370000
b1 "
b0 "
07
0B
1)
0:
18
0F
1E
10
04
13
1(
0$
1%
0<
01
0'
#380000
1!
15
0)
1:
08
00
0(
1<
11
1'
#400000
b1001 #
b1000 #
06
0=
1)
0:
0?
18
10
1(
0@
0<
02
01
0&
0'
#440000
b100 "
b110 "
b1110 "
0!
19
1>
1B
05
0)
1?
1<
1F
0E
08
11
14
03
00
1'
1$
0%
0(
1@
12
1&
#480000
b1100 #
b1101 #
16
1=
1)
1D
0?
18
10
1(
1E
0@
13
02
1%
0&
#490000
b1010 "
b1000 "
b0 "
09
0>
0B
0)
0D
1?
0<
0E
01
03
0'
0%
0F
1E
1@
04
13
12
0$
1%
1&
#510000
b1 "
17
1)
1:
08
00
0(
1<
11
1'
#550000
b0 "
07
0)
0:
18
10
1(
0<
01
0'
#560000
b1111 #
1;
1)
1<
11
1'
#640000
b1101 #
0;
0)
0<
01
0'
#680000
b101 #
b1 #
b0 #
06
0=
0A
1)
0?
08
0E
00
03
0(
0%
0@
02
0&
